{
    "retailer": "leclerc",
    "crawl": "/catalogue/evenements/black-friday/selection",
    "crawlTest": "/catalogue/evenements/black-friday-test-crawl-portail",
    "name": "black-friday",
    "format": "TG",
    "live": true,
    "devPath": "//localhost:8080/dist/",
    "livePath": "//rscdn.storetail.net/lcl-portal/black_friday_2019/",
    "products_enmagasin": [],
    "universe": {
        "hightech": ["Informatique Tablette", "Smartphone Téléphonie, GPS", "TV Photo, Son", "Objets Connectés Jouets, Mobilité"],
        "maison": ["Petit électroménager Cuisine", "Entretien et soin de la maison", "Beauté santé", "Maison", "Jardin & animalerie", "Loisirs & jeux", "Bricolage"],
        "parapharmacie": ["Visage", "Corps", "Hygiène", "Cheveux", "Santé, Bien être", "Naturel et Bio", "Maman et Bébé", "Maquillage", "Minceur"],
        "culture": ["Livre", "Musique & Streaming", "Vidéo", "Jeux Vidéo", "Jouets", "Coffrets cadeaux", "Billeterie", "e-librairie"],
        "mode": ["Tous les sports", "Sportswear", "Accessoires", "Mode"],
        "vin": ["Vins", "Champagnes & effervescents", "Spiritueux", "Bières"],
        "alimentaire": ["Epicerie"],
        "bijoux": ["Bijoux"],
        "all": ["Informatique Tablette", "Smartphone Téléphonie, GPS", "TV Photo, Son", "Objets Connectés Jouets, Mobilité", "Petit électroménager Cuisine", "Entretien soin de la maison", "Beauté santé", "Maison", "Jardin & animalerie", "Loisiers & jeux", "Bricolage", "Visage", "Corps", "Hygiène", "Cheveux", "Santé, Bien être", "Naturel et Bio", "Maman et Bébé", "Maquillage", "Minceur", "Livre", "Musique & Streaming", "Vidéo", "Jeux Vidéo", "Jouets", "Coffrets cadeaux", "Billeterie", "e-librairie", "Tous les sports", "Sportswear", "Accessoires", "Mode", "Vins", "Champagnes & effervescents", "Spiritueux", "Bières", "Epicerie", "Bijoux"]
    },
    "hightech_real_subcat": ["informatique_tablette", "smartphone_telephonie_gps", "tv_photo_son", "objets_connectes_jouets_mobilite", "objets_co_mobilite_jouets"],
    "subcategories_aliases": {
        "loisirs_jeux": ["Loisirs et jeux"],
        "sante_bien_etre": ["Santé"],
        "maquillage": ["Beauté"],
        "maman_et_bebe": ["Bébé et Maman"],
        "naturel_et_bio": ["Bio/Nature"],
        "objets_connectes_jouets_mobilite": ["Objets Co Mobilité Jouets"],
        "petit_electromenager_cuisine": ["Petit électro Cuisine"],
        "entretien_et_soin_de_la_maison": ["Entretien soin de la maison"],
        "musique_streaming": ["Musique"]
    },
    "all_categories": ["hightech", "maison", "parapharmacie", "culture", "mode", "vin", "alimentaire", "bijoux"],
    "all_products_categories": {
        "High-Tech": "hightech",
        "Jardin, Maison & Électroménager": "maison",
        "Culture & Jouets": "culture",
        "Parapharmacie": "parapharmacie",
        "Mode & Sport": "mode",
        "Vins & Alcools": "vin",
        "Épicerie Fine": "alimentaire",
        "Bijoux": "bijoux"
    },
    "banners": {
        "hightech": [{
                "date": "all",
                "message": "Jusqu'à 35% sur une sélection de PC portables",
                "url": "https://www.hightech.leclerc/Black_Friday_PC_portables-b?utm_medium=leclerc&utm_source=portail&utm_campaign=2019-11-25-S48-BlackFriday&utm_content=Banniere_generique_pc_portable"
            },
            {
                "date": "all",
                "message": "Jusqu'à 30% sur une sélection de smartphones",
                "url": "https://www.hightech.leclerc/Black_Friday_smartphone-b?utm_medium=leclerc&utm_source=portail&utm_campaign=2019-11-25-S48-BlackFriday&utm_content=Banniere_generique_smartphone"
            },
            {
                "date": "all",
                "message": "Jusqu'à 40% sur une sélection de produits électroménager",
                "url": "https://www.hightech.leclerc/boutique-black-friday-electromenager-b?utm_medium=leclerc&utm_source=portail&utm_campaign=2019-11-25-S48-BlackFriday&utm_content=Banniere_generique_electromenager"
            },
            {
                "date": "all",
                "message": "Jusqu'à 20% sur une sélection de TV",
                "url": "https://www.hightech.leclerc/black-friday-tv-b?utm_medium=leclerc&utm_source=portail&utm_campaign=2019-11-25-S48-BlackFriday&utm_content=Banniere_generique_tv"
            }
        ],
        "maison": [{
                "date": "all",
                "message": "Nettoyeur haute pression électrique One Extra 135 - LAVOR 49€45 au lieu de 109€90 (-55%BRII)",
                "url": "https://www.maisonetloisirs.leclerc/nettoyeur-haute-pression-electrique-one-extra-135?utm_medium=leclerc&utm_source=portail&utm_campaign=2019-11-25-BlackFriday&utm_content=Nettoyeur-haute-pression"
            },
            {
                "date": "all",
                "message": "Jusqu'à -70€ sur une sélection de matelas",
                "url": "https://www.maisonetloisirs.leclerc/black-friday-matelas?utm_medium=leclerc&utm_source=portail&utm_campaign=2019-11-25-BlackFridayRubrique&utm_content=Canape"
            },
            {
                "date": "all",
                "message": "ASPIRATEUR BALAI ROWENTA AIR FORCE 460 à 299€ - 100€ = 199€",
                "url": "https://www.hightech.leclerc/entretien-et-soin-de-la-maison-u/aspirateur-u/aspirateur-balai-u/aspirateur-balai-rowenta-air-force-all-in-one-3221614003158-pr?utm_medium=leclerc&utm_source=portail&utm_campaign=2019-11-25-S48-BlackFriday&utm_content=ASPIRATEUR_BALAI_ROWENTA_AIR_FORCE"
            },
            {
                "date": "all",
                "message": "Jusqu'à -40% sur une sélection de produits électroménager",
                "url": "https://www.hightech.leclerc/boutique-black-friday-electromenager-b?utm_medium=leclerc&utm_source=portail&utm_campaign=2019-11-25-S48-BlackFriday&utm_content=Banniere_generique_electromenager"
            }
        ],
        "parapharmacie": [{
                "date": "all",
                "message": "Jusqu'à -20% de remise immédiate sur notre sélection Bioderma",
                "url": "https://www.parapharmacie.leclerc/promotions/?pertimm_marque=BIODERMA&utm_medium=leclerc&utm_source=portail&utm_campaign=2019-11-25-banniere-black-friday&utm_content=bioderma"
            },
            {
                "date": "all",
                "message": "Jusqu'à -25% de remise immédiate sur Bio beauté by Nuxe et sur notre sélection Nuxe",
                "url": "https://www.parapharmacie.leclerc/promotions/?pertimm_marque=NUXE&utm_medium=leclerc&utm_source=portail&utm_campaign=2019-11-25-banniere-black-friday&utm_content=nuxe"
            },
            {
                "date": "all",
                "message": "Jusqu'à -40% de remise immédiate sur notre sélection Bébé",
                "url": "https://www.parapharmacie.leclerc/selection/black-friday-parapharmacie/bebe?utm_medium=leclerc&utm_source=portail&utm_campaign=2019-11-25-banniere-black-friday&utm_content=bebe"
            },
            {
                "date": "all",
                "message": "Découvrez nos promotions sur une sélection de produits cadeaux et beauté",
                "url": "https://www.parapharmacie.leclerc/selection/black-friday-parapharmacie/cadeaux-et-beaute?utm_medium=leclerc&utm_source=portail&utm_campaign=2019-11-25-banniere-black-friday&utm_content=cadeaux-beaute"
            }
        ],
        "culture": [{
                "date": "all",
                "message": "Prix chocs sur une sélection de jeux, consoles & accessoires",
                "url": "https://www.culture.leclerc/jeux-video-u/black-friday-jeux-video-u?utm_medium=leclerc&utm_source=portail&utm_campaign=2019-11-25-black-friday&utm_content=banniere-rubrique-jeu-video"
            },
            {
                "date": "all",
                "message": "-50% sur la collection Barbie et Ken métiers de rêve",
                "url": "https://www.culture.leclerc/jouets-u/selection-barbie-black-friday-b?utm_medium=leclerc&utm_source=portail&utm_campaign=2019-11-25-black-friday&utm_content=banniere-rubrique-jouets"
            },
            {
                "date": "all",
                "message": "2 albums achetés = 1 album offert* !",
                "url": "https://www.culture.leclerc/2000000193649-p?utm_medium=leclerc&utm_source=portail&utm_campaign=2019-11-25-black-friday&utm_content=banniere-rubrique-musique"
            },
            {
                "date": "all",
                "message": "Livres neufs à prix réduits : À partir de -50% ",
                "url": "https://www.culture.leclerc/livre-u/black-friday-livre-b?utm_medium=leclerc&utm_source=portail&utm_campaign=2019-11-25-black-friday&utm_content=banniere-rubrique-livres"
            }
        ],
        "mode": [{
                "date": "all",
                "message": "Jusqu'à -50% sur le textile et les chaussures ",
                "url": "https://www.sport.leclerc/toutes-les-offres?utm_medium=leclerc&utm_source=portail&utm_campaign=2019-06-11-black-friday-sport&utm_content=banniere-portail-black-friday-sport"
            },
            {
                "date": "all",
                "message": "Jusqu'à 100 € de remise sur la gamme électrique",
                "url": "https://www.sport.leclerc/velo-electrique-35?utm_medium=leclerc&utm_source=portail&utm_campaign=2019-06-11-black-friday-sport&utm_content=banniere-rubrique-black-friday"
            },
            {
                "date": "all",
                "message": "jusqu'à 700 € de remise sur le matériel de fitness ",
                "url": "https://www.sport.leclerc/marques-sport/Care/1/5411?utm_medium=leclerc&utm_source=portail&utm_campaign=2019-06-11-black-friday-sport&utm_content=banniere-rubrique-black-friday"
            },
            {
                "date": "all",
                "message": "100 euros offerts sur le produit black Friday : Trampoline 300 CM Kangui",
                "url": "https://www.sport.leclerc/trampoline-300-cm-filet-couverture-de-proprete-echelle?utm_medium=leclerc&utm_source=portail&utm_campaign=2019-06-11-black-friday-sport&utm_content=banniere-rubrique-black-friday"
            }
        ],
        "vin": [{
                "date": "all",
                "message": "Jusqu'à 10% de remise immédiate sur notre sélection de vins",
                "url": "https://www.macave.leclerc/black-week?utm_medium=leclerc&utm_source=portail&utm_campaign=2019-11-25-black-friday&utm_content=banniere-rubrique-generique"
            },
            {
                "date": "all",
                "message": "34% de remise immédiate sur le charles de cazanove - cuvée spéciale cazanova",
                "url": "https://www.macave.leclerc/charles-de-cazanove-cuvee-speciale-cazanova-champagne-effervescent?utm_medium=leclerc&utm_source=portail&utm_campaign=2019-11-27-black-friday&utm_content=banniere-rubrique-produit4"
            }
        ],
        "alimentaire": [],
        "bijoux": [],
        "bijoux2": [],
        "bijoux3": [],
        "jeux_video": [],
        "musique_streaming": [],
        "livre": [],
        "video": [],
        "jouets": []
    },
    "btn_products": {
        "3614703496458": "BOTH",
        "3614703496489": "BOTH",
        "3614703496496": "BOTH",
        "3614703496502": "BOTH",
        "3614703496519": "BOTH",
        "3614703496526": "BOTH",
        "3614703496533": "BOTH",
        "3760165464969": "BOTH",
        "3347260903120": "BOTH",
        "8015244200071": "BOTH",
        "3760256554227": "BOTH",
        "3700691412065": "BOTH",
        "5702016111910": "BOTH",
        "3262190412866": "BOTH",
        "3459223545923": "BOTH",
        "4008789050137": "BOTH",
        "0887961368079": "BOTH",
        "0193575000213": "BOTH",
        "0842776102379": "BOTH",
        "6925281937248": "BOTH",
        "6925281925047": "BOTH",
        "7340055352369": "BOTH",
        "8801643812195": "BOTH",
        "0193638727392": "BOTH",
        "4718017428347": "BOTH",
        "4710180523133": "BOTH",
        "0193386609865": "BOTH",
        "4718017428378": "BOTH",
        "3700062636311": "BOTH",
        "8801643695101": "BOTH",
        "6943279420428": "BOTH",
        "8801643829834": "BOTH",
        "3614704972876": "BOTH",
        "6941059620648": "BOTH",
        "8801643649210": "BOTH",
        "0194441170290": "BOTH",
        "4549292062755": "BOTH",
        "0734646679862": "BOTH",
        "7636490063435": "BOTH",
        "0843591083256": "BOTH",
        "5901292511456": "BOTH",
        "8806098387885": "BOTH",
        "5901292513979": "BOTH",
        "8806098424795": "BOTH",
        "5901292513986": "BOTH",
        "8806090173752": "BOTH",
        "8806090169229": "BOTH",
        "5055862314319": "BOTH",
        "8801643730383": "BOTH",
        "8801643741518": "BOTH",
        "0818279022995": "BOTH",
        "8714574659992": "BOTH",
        "6901443290840": "BOTH",
        "3660767966819": "BOTH",
        "3221614003158": "BOTH",
        "5060629980027": "BOTH",
        "8016361938892": "BOTH",
        "3045386358564": "BOTH",
        "3121040073148": "BOTH",
        "5035048666036": "BOTH",
        "5012512164847": "BOTH",
        "8710103799771": "BOTH",
        "8710103921103": "BOTH"
    }
}
